﻿天气现象,所属天气,背景图,背景图-2x,小图标（白）,小图标（白）-2x,
晴,晴,http://121.37.135.65:38888/group1/M00/00/0C/wKgAvGCGZn-AQn56AAEnaY-t8GU671.png,http://121.37.135.65:38888/group1/M00/00/0C/wKgAvGCGZn-AX11CAAYKpRrqDA4502.png,http://121.37.135.65:38888/group1/M00/00/0C/wKgAvGCGZn-AN6PZAAAF0U0I7kI781.png,http://121.37.135.65:38888/group1/M00/00/0C/wKgAvGCGZn-AUG19AAAPaU1CNfQ467.png,
少云,多云,http://121.37.135.65:38888/group1/M00/00/0C/wKgAvGCGZnuADDnYAAD4tbrX438215.png,http://121.37.135.65:38888/group1/M00/00/0C/wKgAvGCGZnuALWfoAAXitkxNWaM295.png,http://121.37.135.65:38888/group1/M00/00/0C/wKgAvGCGZnuAZZy8AAAGLYu13js188.png,http://121.37.135.65:38888/group1/M00/00/0C/wKgAvGCGZnuAQ_1OAAANfXAdQ4c940.png,
晴间多云,多云,http://121.37.135.65:38888/group1/M00/00/0C/wKgAvGCGZnuADDnYAAD4tbrX438215.png,http://121.37.135.65:38888/group1/M00/00/0C/wKgAvGCGZnuALWfoAAXitkxNWaM295.png,http://121.37.135.65:38888/group1/M00/00/0C/wKgAvGCGZnuAZZy8AAAGLYu13js188.png,http://121.37.135.65:38888/group1/M00/00/0C/wKgAvGCGZnuAQ_1OAAANfXAdQ4c940.png,
阴,阴天,http://121.37.135.65:38888/group1/M00/00/0C/wKgAvGCGZnuADDnYAAD4tbrX438215.png,http://121.37.135.65:38888/group1/M00/00/0C/wKgAvGCGZnuALWfoAAXitkxNWaM295.png,http://121.37.135.65:38888/group1/M00/00/0C/wKgAvGCGZnuAZZy8AAAGLYu13js188.png,http://121.37.135.65:38888/group1/M00/00/0C/wKgAvGCGZnuAQ_1OAAANfXAdQ4c940.png,
多云,多云,http://121.37.135.65:38888/group1/M00/00/0C/wKgAvGCGZnyAQH72AADVXkZ4-Mo142.png,http://121.37.135.65:38888/group1/M00/00/0C/wKgAvGCGZnyAYcZTAAWzt63nWLU454.png,http://121.37.135.65:38888/group1/M00/00/0C/wKgAvGCGZnyAbb9RAAAGyoMYeII666.png,http://121.37.135.65:38888/group1/M00/00/0C/wKgAvGCGZnyANcHyAAAPDOc1CCo759.png,
有风,未知,,,,,
平静,晴,http://121.37.135.65:38888/group1/M00/00/0C/wKgAvGCGZn-AQn56AAEnaY-t8GU671.png,http://121.37.135.65:38888/group1/M00/00/0C/wKgAvGCGZn-AX11CAAYKpRrqDA4502.png,http://121.37.135.65:38888/group1/M00/00/0C/wKgAvGCGZn-AN6PZAAAF0U0I7kI781.png,http://121.37.135.65:38888/group1/M00/00/0C/wKgAvGCGZn-AUG19AAAPaU1CNfQ467.png,
微风,未知,,,,,
和风,未知,,,,,
清风,未知,,,,,
强风/劲风,未知,,,,,
疾风,未知,,,,,
大风,未知,,,,,
烈风,未知,,,,,
风暴,未知,,,,,
狂爆风,未知,,,,,
飓风,未知,,,,,
热带风暴,未知,,,,,
霾,霾,http://121.37.135.65:38888/group1/M00/00/0C/wKgAvGCGZn2AXAo9AAEo55pXoQY969.png,http://121.37.135.65:38888/group1/M00/00/0C/wKgAvGCGZn6AXiZJAAXMkImCbbw031.png,http://121.37.135.65:38888/group1/M00/00/0C/wKgAvGCGZn6AA1PMAAAE_kzRq9c897.png,http://121.37.135.65:38888/group1/M00/00/0C/wKgAvGCGZn6AOcDkAAAKmPE1-H8247.png,
中度霾,霾,http://121.37.135.65:38888/group1/M00/00/0C/wKgAvGCGZn2AXAo9AAEo55pXoQY969.png,http://121.37.135.65:38888/group1/M00/00/0C/wKgAvGCGZn6AXiZJAAXMkImCbbw031.png,http://121.37.135.65:38888/group1/M00/00/0C/wKgAvGCGZn6AA1PMAAAE_kzRq9c897.png,http://121.37.135.65:38888/group1/M00/00/0C/wKgAvGCGZn6AOcDkAAAKmPE1-H8247.png,
重度霾,霾,http://121.37.135.65:38888/group1/M00/00/0C/wKgAvGCGZn2AXAo9AAEo55pXoQY969.png,http://121.37.135.65:38888/group1/M00/00/0C/wKgAvGCGZn6AXiZJAAXMkImCbbw031.png,http://121.37.135.65:38888/group1/M00/00/0C/wKgAvGCGZn6AA1PMAAAE_kzRq9c897.png,http://121.37.135.65:38888/group1/M00/00/0C/wKgAvGCGZn6AOcDkAAAKmPE1-H8247.png,
严重霾,霾,http://121.37.135.65:38888/group1/M00/00/0C/wKgAvGCGZn2AXAo9AAEo55pXoQY969.png,http://121.37.135.65:38888/group1/M00/00/0C/wKgAvGCGZn6AXiZJAAXMkImCbbw031.png,http://121.37.135.65:38888/group1/M00/00/0C/wKgAvGCGZn6AA1PMAAAE_kzRq9c897.png,http://121.37.135.65:38888/group1/M00/00/0C/wKgAvGCGZn6AOcDkAAAKmPE1-H8247.png,
阵雨,雨,http://121.37.135.65:38888/group1/M00/00/0C/wKgAvGCGZnyAZre_AAFrSjADPpA304.png,http://121.37.135.65:38888/group1/M00/00/0C/wKgAvGCGZnyARxg3AAcwn3WCxRQ363.png,http://121.37.135.65:38888/group1/M00/00/0C/wKgAvGCGZnyAfHi8AAAF4HiKffE921.png,http://121.37.135.65:38888/group1/M00/00/0C/wKgAvGCGZn2ASTGpAAANGOJhCJ4093.png,
雷阵雨,雨,http://121.37.135.65:38888/group1/M00/00/0C/wKgAvGCGZnyAZre_AAFrSjADPpA304.png,http://121.37.135.65:38888/group1/M00/00/0C/wKgAvGCGZnyARxg3AAcwn3WCxRQ363.png,http://121.37.135.65:38888/group1/M00/00/0C/wKgAvGCGZnyAfHi8AAAF4HiKffE921.png,http://121.37.135.65:38888/group1/M00/00/0C/wKgAvGCGZn2ASTGpAAANGOJhCJ4093.png,
雷阵雨并伴有冰雹,雨,http://121.37.135.65:38888/group1/M00/00/0C/wKgAvGCGZnyAZre_AAFrSjADPpA304.png,http://121.37.135.65:38888/group1/M00/00/0C/wKgAvGCGZnyARxg3AAcwn3WCxRQ363.png,http://121.37.135.65:38888/group1/M00/00/0C/wKgAvGCGZnyAfHi8AAAF4HiKffE921.png,http://121.37.135.65:38888/group1/M00/00/0C/wKgAvGCGZn2ASTGpAAANGOJhCJ4093.png,
小雨,雨,http://121.37.135.65:38888/group1/M00/00/0C/wKgAvGCGZnyAZre_AAFrSjADPpA304.png,http://121.37.135.65:38888/group1/M00/00/0C/wKgAvGCGZnyARxg3AAcwn3WCxRQ363.png,http://121.37.135.65:38888/group1/M00/00/0C/wKgAvGCGZnyAfHi8AAAF4HiKffE921.png,http://121.37.135.65:38888/group1/M00/00/0C/wKgAvGCGZn2ASTGpAAANGOJhCJ4093.png,
中雨,雨,http://121.37.135.65:38888/group1/M00/00/0C/wKgAvGCGZnyAZre_AAFrSjADPpA304.png,http://121.37.135.65:38888/group1/M00/00/0C/wKgAvGCGZnyARxg3AAcwn3WCxRQ363.png,http://121.37.135.65:38888/group1/M00/00/0C/wKgAvGCGZnyAfHi8AAAF4HiKffE921.png,http://121.37.135.65:38888/group1/M00/00/0C/wKgAvGCGZn2ASTGpAAANGOJhCJ4093.png,
大雨,雨,http://121.37.135.65:38888/group1/M00/00/0C/wKgAvGCGZnyAZre_AAFrSjADPpA304.png,http://121.37.135.65:38888/group1/M00/00/0C/wKgAvGCGZnyARxg3AAcwn3WCxRQ363.png,http://121.37.135.65:38888/group1/M00/00/0C/wKgAvGCGZnyAfHi8AAAF4HiKffE921.png,http://121.37.135.65:38888/group1/M00/00/0C/wKgAvGCGZn2ASTGpAAANGOJhCJ4093.png,
暴雨,雨,http://121.37.135.65:38888/group1/M00/00/0C/wKgAvGCGZnyAZre_AAFrSjADPpA304.png,http://121.37.135.65:38888/group1/M00/00/0C/wKgAvGCGZnyARxg3AAcwn3WCxRQ363.png,http://121.37.135.65:38888/group1/M00/00/0C/wKgAvGCGZnyAfHi8AAAF4HiKffE921.png,http://121.37.135.65:38888/group1/M00/00/0C/wKgAvGCGZn2ASTGpAAANGOJhCJ4093.png,
大暴雨,雨,http://121.37.135.65:38888/group1/M00/00/0C/wKgAvGCGZnyAZre_AAFrSjADPpA304.png,http://121.37.135.65:38888/group1/M00/00/0C/wKgAvGCGZnyARxg3AAcwn3WCxRQ363.png,http://121.37.135.65:38888/group1/M00/00/0C/wKgAvGCGZnyAfHi8AAAF4HiKffE921.png,http://121.37.135.65:38888/group1/M00/00/0C/wKgAvGCGZn2ASTGpAAANGOJhCJ4093.png,
特大暴雨,雨,http://121.37.135.65:38888/group1/M00/00/0C/wKgAvGCGZnyAZre_AAFrSjADPpA304.png,http://121.37.135.65:38888/group1/M00/00/0C/wKgAvGCGZnyARxg3AAcwn3WCxRQ363.png,http://121.37.135.65:38888/group1/M00/00/0C/wKgAvGCGZnyAfHi8AAAF4HiKffE921.png,http://121.37.135.65:38888/group1/M00/00/0C/wKgAvGCGZn2ASTGpAAANGOJhCJ4093.png,
强阵雨,雨,http://121.37.135.65:38888/group1/M00/00/0C/wKgAvGCGZnyAZre_AAFrSjADPpA304.png,http://121.37.135.65:38888/group1/M00/00/0C/wKgAvGCGZnyARxg3AAcwn3WCxRQ363.png,http://121.37.135.65:38888/group1/M00/00/0C/wKgAvGCGZnyAfHi8AAAF4HiKffE921.png,http://121.37.135.65:38888/group1/M00/00/0C/wKgAvGCGZn2ASTGpAAANGOJhCJ4093.png,
强雷阵雨,雨,http://121.37.135.65:38888/group1/M00/00/0C/wKgAvGCGZnyAZre_AAFrSjADPpA304.png,http://121.37.135.65:38888/group1/M00/00/0C/wKgAvGCGZnyARxg3AAcwn3WCxRQ363.png,http://121.37.135.65:38888/group1/M00/00/0C/wKgAvGCGZnyAfHi8AAAF4HiKffE921.png,http://121.37.135.65:38888/group1/M00/00/0C/wKgAvGCGZn2ASTGpAAANGOJhCJ4093.png,
极端降雨,雨,http://121.37.135.65:38888/group1/M00/00/0C/wKgAvGCGZnyAZre_AAFrSjADPpA304.png,http://121.37.135.65:38888/group1/M00/00/0C/wKgAvGCGZnyARxg3AAcwn3WCxRQ363.png,http://121.37.135.65:38888/group1/M00/00/0C/wKgAvGCGZnyAfHi8AAAF4HiKffE921.png,http://121.37.135.65:38888/group1/M00/00/0C/wKgAvGCGZn2ASTGpAAANGOJhCJ4093.png,
毛毛雨/细雨,雨,http://121.37.135.65:38888/group1/M00/00/0C/wKgAvGCGZnyAZre_AAFrSjADPpA304.png,http://121.37.135.65:38888/group1/M00/00/0C/wKgAvGCGZnyARxg3AAcwn3WCxRQ363.png,http://121.37.135.65:38888/group1/M00/00/0C/wKgAvGCGZnyAfHi8AAAF4HiKffE921.png,http://121.37.135.65:38888/group1/M00/00/0C/wKgAvGCGZn2ASTGpAAANGOJhCJ4093.png,
雨,雨,http://121.37.135.65:38888/group1/M00/00/0C/wKgAvGCGZnyAZre_AAFrSjADPpA304.png,http://121.37.135.65:38888/group1/M00/00/0C/wKgAvGCGZnyARxg3AAcwn3WCxRQ363.png,http://121.37.135.65:38888/group1/M00/00/0C/wKgAvGCGZnyAfHi8AAAF4HiKffE921.png,http://121.37.135.65:38888/group1/M00/00/0C/wKgAvGCGZn2ASTGpAAANGOJhCJ4093.png,
小雨-中雨,雨,http://121.37.135.65:38888/group1/M00/00/0C/wKgAvGCGZnyAZre_AAFrSjADPpA304.png,http://121.37.135.65:38888/group1/M00/00/0C/wKgAvGCGZnyARxg3AAcwn3WCxRQ363.png,http://121.37.135.65:38888/group1/M00/00/0C/wKgAvGCGZnyAfHi8AAAF4HiKffE921.png,http://121.37.135.65:38888/group1/M00/00/0C/wKgAvGCGZn2ASTGpAAANGOJhCJ4093.png,
中雨-大雨,雨,http://121.37.135.65:38888/group1/M00/00/0C/wKgAvGCGZnyAZre_AAFrSjADPpA304.png,http://121.37.135.65:38888/group1/M00/00/0C/wKgAvGCGZnyARxg3AAcwn3WCxRQ363.png,http://121.37.135.65:38888/group1/M00/00/0C/wKgAvGCGZnyAfHi8AAAF4HiKffE921.png,http://121.37.135.65:38888/group1/M00/00/0C/wKgAvGCGZn2ASTGpAAANGOJhCJ4093.png,
大雨-暴雨,雨,http://121.37.135.65:38888/group1/M00/00/0C/wKgAvGCGZnyAZre_AAFrSjADPpA304.png,http://121.37.135.65:38888/group1/M00/00/0C/wKgAvGCGZnyARxg3AAcwn3WCxRQ363.png,http://121.37.135.65:38888/group1/M00/00/0C/wKgAvGCGZnyAfHi8AAAF4HiKffE921.png,http://121.37.135.65:38888/group1/M00/00/0C/wKgAvGCGZn2ASTGpAAANGOJhCJ4093.png,
暴雨-大暴雨,雨,http://121.37.135.65:38888/group1/M00/00/0C/wKgAvGCGZnyAZre_AAFrSjADPpA304.png,http://121.37.135.65:38888/group1/M00/00/0C/wKgAvGCGZnyARxg3AAcwn3WCxRQ363.png,http://121.37.135.65:38888/group1/M00/00/0C/wKgAvGCGZnyAfHi8AAAF4HiKffE921.png,http://121.37.135.65:38888/group1/M00/00/0C/wKgAvGCGZn2ASTGpAAANGOJhCJ4093.png,
大暴雨-特大暴雨,雨,http://121.37.135.65:38888/group1/M00/00/0C/wKgAvGCGZnyAZre_AAFrSjADPpA304.png,http://121.37.135.65:38888/group1/M00/00/0C/wKgAvGCGZnyARxg3AAcwn3WCxRQ363.png,http://121.37.135.65:38888/group1/M00/00/0C/wKgAvGCGZnyAfHi8AAAF4HiKffE921.png,http://121.37.135.65:38888/group1/M00/00/0C/wKgAvGCGZn2ASTGpAAANGOJhCJ4093.png,
雨雪天气,雨夹雪,http://121.37.135.65:38888/group1/M00/00/0C/wKgAvGCGZn2AOkbkAAEvgr84atk893.png,http://121.37.135.65:38888/group1/M00/00/0C/wKgAvGCGZn2Aa9q8AAaSv5-EEE0894.png,http://121.37.135.65:38888/group1/M00/00/0C/wKgAvGCGZn2AHLxxAAAF0oQZqFQ176.png,http://121.37.135.65:38888/group1/M00/00/0C/wKgAvGCGZn2AdIzoAAAM_L3BS-k126.png,
雨夹雪,雨夹雪,http://121.37.135.65:38888/group1/M00/00/0C/wKgAvGCGZn2AOkbkAAEvgr84atk893.png,http://121.37.135.65:38888/group1/M00/00/0C/wKgAvGCGZn2Aa9q8AAaSv5-EEE0894.png,http://121.37.135.65:38888/group1/M00/00/0C/wKgAvGCGZn2AHLxxAAAF0oQZqFQ176.png,http://121.37.135.65:38888/group1/M00/00/0C/wKgAvGCGZn2AdIzoAAAM_L3BS-k126.png,
阵雨夹雪,雨夹雪,http://121.37.135.65:38888/group1/M00/00/0C/wKgAvGCGZn2AOkbkAAEvgr84atk893.png,http://121.37.135.65:38888/group1/M00/00/0C/wKgAvGCGZn2Aa9q8AAaSv5-EEE0894.png,http://121.37.135.65:38888/group1/M00/00/0C/wKgAvGCGZn2AHLxxAAAF0oQZqFQ176.png,http://121.37.135.65:38888/group1/M00/00/0C/wKgAvGCGZn2AdIzoAAAM_L3BS-k126.png,
冻雨,雨,http://121.37.135.65:38888/group1/M00/00/0C/wKgAvGCGZnyAZre_AAFrSjADPpA304.png,http://121.37.135.65:38888/group1/M00/00/0C/wKgAvGCGZnyARxg3AAcwn3WCxRQ363.png,http://121.37.135.65:38888/group1/M00/00/0C/wKgAvGCGZnyAfHi8AAAF4HiKffE921.png,http://121.37.135.65:38888/group1/M00/00/0C/wKgAvGCGZn2ASTGpAAANGOJhCJ4093.png,
雪,雪,http://121.37.135.65:38888/group1/M00/00/0C/wKgAvGCGZn6ABxvGAAEWuhA3t2c313.png,http://121.37.135.65:38888/group1/M00/00/0C/wKgAvGCGZn6AUBTIAAYPuh2aV0I845.png,http://121.37.135.65:38888/group1/M00/00/0C/wKgAvGCGZn6AJDKUAAAJQirAUD8983.png,http://121.37.135.65:38888/group1/M00/00/0C/wKgAvGCGZn6AZv7LAAAUkJMdWMY814.png,
阵雪,雪,http://121.37.135.65:38888/group1/M00/00/0C/wKgAvGCGZn6ABxvGAAEWuhA3t2c313.png,http://121.37.135.65:38888/group1/M00/00/0C/wKgAvGCGZn6AUBTIAAYPuh2aV0I845.png,http://121.37.135.65:38888/group1/M00/00/0C/wKgAvGCGZn6AJDKUAAAJQirAUD8983.png,http://121.37.135.65:38888/group1/M00/00/0C/wKgAvGCGZn6AZv7LAAAUkJMdWMY814.png,
小雪,雪,http://121.37.135.65:38888/group1/M00/00/0C/wKgAvGCGZn6ABxvGAAEWuhA3t2c313.png,http://121.37.135.65:38888/group1/M00/00/0C/wKgAvGCGZn6AUBTIAAYPuh2aV0I845.png,http://121.37.135.65:38888/group1/M00/00/0C/wKgAvGCGZn6AJDKUAAAJQirAUD8983.png,http://121.37.135.65:38888/group1/M00/00/0C/wKgAvGCGZn6AZv7LAAAUkJMdWMY814.png,
中雪,雪,http://121.37.135.65:38888/group1/M00/00/0C/wKgAvGCGZn6ABxvGAAEWuhA3t2c313.png,http://121.37.135.65:38888/group1/M00/00/0C/wKgAvGCGZn6AUBTIAAYPuh2aV0I845.png,http://121.37.135.65:38888/group1/M00/00/0C/wKgAvGCGZn6AJDKUAAAJQirAUD8983.png,http://121.37.135.65:38888/group1/M00/00/0C/wKgAvGCGZn6AZv7LAAAUkJMdWMY814.png,
大雪,雪,http://121.37.135.65:38888/group1/M00/00/0C/wKgAvGCGZn6ABxvGAAEWuhA3t2c313.png,http://121.37.135.65:38888/group1/M00/00/0C/wKgAvGCGZn6AUBTIAAYPuh2aV0I845.png,http://121.37.135.65:38888/group1/M00/00/0C/wKgAvGCGZn6AJDKUAAAJQirAUD8983.png,http://121.37.135.65:38888/group1/M00/00/0C/wKgAvGCGZn6AZv7LAAAUkJMdWMY814.png,
暴雪,雪,http://121.37.135.65:38888/group1/M00/00/0C/wKgAvGCGZn6ABxvGAAEWuhA3t2c313.png,http://121.37.135.65:38888/group1/M00/00/0C/wKgAvGCGZn6AUBTIAAYPuh2aV0I845.png,http://121.37.135.65:38888/group1/M00/00/0C/wKgAvGCGZn6AJDKUAAAJQirAUD8983.png,http://121.37.135.65:38888/group1/M00/00/0C/wKgAvGCGZn6AZv7LAAAUkJMdWMY814.png,
小雪-中雪,雪,http://121.37.135.65:38888/group1/M00/00/0C/wKgAvGCGZn6ABxvGAAEWuhA3t2c313.png,http://121.37.135.65:38888/group1/M00/00/0C/wKgAvGCGZn6AUBTIAAYPuh2aV0I845.png,http://121.37.135.65:38888/group1/M00/00/0C/wKgAvGCGZn6AJDKUAAAJQirAUD8983.png,http://121.37.135.65:38888/group1/M00/00/0C/wKgAvGCGZn6AZv7LAAAUkJMdWMY814.png,
中雪-大雪,雪,http://121.37.135.65:38888/group1/M00/00/0C/wKgAvGCGZn6ABxvGAAEWuhA3t2c313.png,http://121.37.135.65:38888/group1/M00/00/0C/wKgAvGCGZn6AUBTIAAYPuh2aV0I845.png,http://121.37.135.65:38888/group1/M00/00/0C/wKgAvGCGZn6AJDKUAAAJQirAUD8983.png,http://121.37.135.65:38888/group1/M00/00/0C/wKgAvGCGZn6AZv7LAAAUkJMdWMY814.png,
大雪-暴雪,雪,http://121.37.135.65:38888/group1/M00/00/0C/wKgAvGCGZn6ABxvGAAEWuhA3t2c313.png,http://121.37.135.65:38888/group1/M00/00/0C/wKgAvGCGZn6AUBTIAAYPuh2aV0I845.png,http://121.37.135.65:38888/group1/M00/00/0C/wKgAvGCGZn6AJDKUAAAJQirAUD8983.png,http://121.37.135.65:38888/group1/M00/00/0C/wKgAvGCGZn6AZv7LAAAUkJMdWMY814.png,
浮尘,霾,http://121.37.135.65:38888/group1/M00/00/0C/wKgAvGCGZn2AXAo9AAEo55pXoQY969.png,http://121.37.135.65:38888/group1/M00/00/0C/wKgAvGCGZn6AXiZJAAXMkImCbbw031.png,http://121.37.135.65:38888/group1/M00/00/0C/wKgAvGCGZn6AA1PMAAAE_kzRq9c897.png,http://121.37.135.65:38888/group1/M00/00/0C/wKgAvGCGZn6AOcDkAAAKmPE1-H8247.png,
扬沙,霾,http://121.37.135.65:38888/group1/M00/00/0C/wKgAvGCGZn2AXAo9AAEo55pXoQY969.png,http://121.37.135.65:38888/group1/M00/00/0C/wKgAvGCGZn6AXiZJAAXMkImCbbw031.png,http://121.37.135.65:38888/group1/M00/00/0C/wKgAvGCGZn6AA1PMAAAE_kzRq9c897.png,http://121.37.135.65:38888/group1/M00/00/0C/wKgAvGCGZn6AOcDkAAAKmPE1-H8247.png,
沙尘暴,霾,http://121.37.135.65:38888/group1/M00/00/0C/wKgAvGCGZn2AXAo9AAEo55pXoQY969.png,http://121.37.135.65:38888/group1/M00/00/0C/wKgAvGCGZn6AXiZJAAXMkImCbbw031.png,http://121.37.135.65:38888/group1/M00/00/0C/wKgAvGCGZn6AA1PMAAAE_kzRq9c897.png,http://121.37.135.65:38888/group1/M00/00/0C/wKgAvGCGZn6AOcDkAAAKmPE1-H8247.png,
强沙尘暴,霾,http://121.37.135.65:38888/group1/M00/00/0C/wKgAvGCGZn2AXAo9AAEo55pXoQY969.png,http://121.37.135.65:38888/group1/M00/00/0C/wKgAvGCGZn6AXiZJAAXMkImCbbw031.png,http://121.37.135.65:38888/group1/M00/00/0C/wKgAvGCGZn6AA1PMAAAE_kzRq9c897.png,http://121.37.135.65:38888/group1/M00/00/0C/wKgAvGCGZn6AOcDkAAAKmPE1-H8247.png,
龙卷风,未知,,,,,
雾,霾,http://121.37.135.65:38888/group1/M00/00/0C/wKgAvGCGZn2AXAo9AAEo55pXoQY969.png,http://121.37.135.65:38888/group1/M00/00/0C/wKgAvGCGZn6AXiZJAAXMkImCbbw031.png,http://121.37.135.65:38888/group1/M00/00/0C/wKgAvGCGZn6AA1PMAAAE_kzRq9c897.png,http://121.37.135.65:38888/group1/M00/00/0C/wKgAvGCGZn6AOcDkAAAKmPE1-H8247.png,
浓雾,霾,http://121.37.135.65:38888/group1/M00/00/0C/wKgAvGCGZn2AXAo9AAEo55pXoQY969.png,http://121.37.135.65:38888/group1/M00/00/0C/wKgAvGCGZn6AXiZJAAXMkImCbbw031.png,http://121.37.135.65:38888/group1/M00/00/0C/wKgAvGCGZn6AA1PMAAAE_kzRq9c897.png,http://121.37.135.65:38888/group1/M00/00/0C/wKgAvGCGZn6AOcDkAAAKmPE1-H8247.png,
强浓雾,霾,http://121.37.135.65:38888/group1/M00/00/0C/wKgAvGCGZn2AXAo9AAEo55pXoQY969.png,http://121.37.135.65:38888/group1/M00/00/0C/wKgAvGCGZn6AXiZJAAXMkImCbbw031.png,http://121.37.135.65:38888/group1/M00/00/0C/wKgAvGCGZn6AA1PMAAAE_kzRq9c897.png,http://121.37.135.65:38888/group1/M00/00/0C/wKgAvGCGZn6AOcDkAAAKmPE1-H8247.png,
轻雾,霾,http://121.37.135.65:38888/group1/M00/00/0C/wKgAvGCGZn2AXAo9AAEo55pXoQY969.png,http://121.37.135.65:38888/group1/M00/00/0C/wKgAvGCGZn6AXiZJAAXMkImCbbw031.png,http://121.37.135.65:38888/group1/M00/00/0C/wKgAvGCGZn6AA1PMAAAE_kzRq9c897.png,http://121.37.135.65:38888/group1/M00/00/0C/wKgAvGCGZn6AOcDkAAAKmPE1-H8247.png,
大雾,霾,http://121.37.135.65:38888/group1/M00/00/0C/wKgAvGCGZn2AXAo9AAEo55pXoQY969.png,http://121.37.135.65:38888/group1/M00/00/0C/wKgAvGCGZn6AXiZJAAXMkImCbbw031.png,http://121.37.135.65:38888/group1/M00/00/0C/wKgAvGCGZn6AA1PMAAAE_kzRq9c897.png,http://121.37.135.65:38888/group1/M00/00/0C/wKgAvGCGZn6AOcDkAAAKmPE1-H8247.png,
特强浓雾,霾,http://121.37.135.65:38888/group1/M00/00/0C/wKgAvGCGZn2AXAo9AAEo55pXoQY969.png,http://121.37.135.65:38888/group1/M00/00/0C/wKgAvGCGZn6AXiZJAAXMkImCbbw031.png,http://121.37.135.65:38888/group1/M00/00/0C/wKgAvGCGZn6AA1PMAAAE_kzRq9c897.png,http://121.37.135.65:38888/group1/M00/00/0C/wKgAvGCGZn6AOcDkAAAKmPE1-H8247.png,
热,未知,,,,,
冷,未知,,,,,
未知,未知,,,,,
